PCBNEW-LibModule-V1  2022-10-22 11:18:36
# encoding utf-8
Units mm
$INDEX
76973
$EndINDEX
$MODULE 76973
Po 0 0 0 15 6353c37c 00000000 ~~
Li 76973
Cd 7697-3-1
Kw Connector
Sc 0
At STD
AR 
Op 0 0 0
T0 2.500 -3.505 1.27 1.27 0 0.254 N V 21 N "J**"
T1 2.500 -3.505 1.27 1.27 0 0.254 N I 21 N "76973"
DS -1.435 -7.44 6.435 -7.44 0.1 24
DS 6.435 -7.44 6.435 0.43 0.1 24
DS 6.435 0.43 -1.435 0.43 0.1 24
DS -1.435 0.43 -1.435 -7.44 0.1 24
DS -2.435 -9.398 7.435 -9.398 0.1 24
DS 7.435 -9.398 7.435 2.388 0.1 24
DS 7.435 2.388 -2.435 2.388 0.1 24
DS -2.435 2.388 -2.435 -9.398 0.1 24
DS -2.435 -9.398 7.435 -9.398 0.1 24
DS 7.435 -9.398 7.435 2.388 0.1 24
DS 7.435 2.388 -2.435 2.388 0.1 24
DS -2.435 2.388 -2.435 -9.398 0.1 24
DS -1.435 -5.305 -1.435 -1.705 0.2 21
DS 6.435 -5.105 6.435 -1.705 0.2 21
DS -0.1 1.895 -0.1 1.895 0.1 21
DS 0 1.895 0 1.895 0.1 21
DA -0.05 1.895 -0.100 1.895 -1800 0.1 21
DA -0.05 1.895 0.000 1.895 -1800 0.1 21
$PAD
Po 0.000 -0
Sh "1" R 2.775 2.775 0 0 900
Dr 1.85 0 0
At STD N 00E0FFFF
Ne 0 ""
$EndPAD
$PAD
Po 0.000 -7.01
Sh "2" C 2.775 2.775 0 0 900
Dr 1.85 0 0
At STD N 00E0FFFF
Ne 0 ""
$EndPAD
$PAD
Po 5.000 -0
Sh "3" C 2.775 2.775 0 0 900
Dr 1.85 0 0
At STD N 00E0FFFF
Ne 0 ""
$EndPAD
$PAD
Po 5.000 -7.01
Sh "4" C 2.775 2.775 0 0 900
Dr 1.85 0 0
At STD N 00E0FFFF
Ne 0 ""
$EndPAD
$EndMODULE 76973
$EndLIBRARY
